{
  "src_folders" : ["test", "test/spec"],
  "output_folder" : "reports",
  "custom_commands_path" : "",
  "custom_assertions_path" : "",
  "page_objects_path" : "",
  "globals_path" : "test/startApp.js",
  "test_runner": {
    "type": "mocha",
    "options": {
      "ui": "bdd",
      "timeout": 9000,
      "slow": 3000
    }
  },

  "selenium" : {
    "start_process" : true,
    "server_path" : "./node_modules/selenium-standalone/.selenium/selenium-server/2.53.1-server.jar",
    "log_path" : "/tmp",
    "host" : "127.0.0.1",
    "port" : 4444,
    "cli_args" : {
      "webdriver.chrome.driver" : "",
      "webdriver.ie.driver" : ""
    }
  },

  "test_settings" : {
    "default" : {
      "launch_url" : "http://localhost:3001/",
      "selenium_port"  : 4444,
      "selenium_host"  : "localhost",
      "silent": true,
      "screenshots" : {
        "enabled" : true,
        "on_error": true,
        "on_failure": true,
        "path" : "test_screenshots"
      },
      "globals": {
        "waitForConditionTimeout": 1000,
        "retryAssertionTimeout": 1000
      },
      "desiredCapabilities": {
        "browserName": "phantomjs",
        "phantomjs.binary.path": "./node_modules/.bin/phantomjs",
        "phantomjs.cli.args": ["--web-security=false", "--ignore-ssl-errors=true", "--webdriver-loglevel=NONE"],
        "javascriptEnabled": true,
        "acceptSslCerts": true
      }
    }
  }
}
